
HeapSort(a,n)
  c=0
  while n>=0
   mid=n/2;
   for i=mid to 0
    l=2*mid+1;
    r=2*mid+2;
    if l<n
      compare a[l] and a[mid]
        if a[l] is smaller
         swap(a[l],a[mid])
    if r<n
        compare a[r] and a[mid]
          if a[r] is smaller
           swap(a[r],a[mid])
   temp[c]=a[0]
   swap(a[0],a[n])
   n--